<?xml version="1.0" encoding="utf-8"?>
<!-- Generator: Adobe Illustrator 26.0.1, SVG Export Plug-In . SVG Version: 6.00 Build 0)  -->
<svg version="1.1" id="Camada_1" xmlns="http://www.w3.org/2000/svg" xmlns:xlink="http://www.w3.org/1999/xlink" x="0px" y="0px"
	 viewBox="0 0 1080 457.78" style="enable-background:new 0 0 1080 457.78;" xml:space="preserve">
<style type="text/css">
	.st0{fill:#008F37;}
	.st1{fill:#DB1E14;}
	.st2{enable-background:new    ;}
	.st3{fill:#27170E;}
</style>
<g>
	<g>
		<path class="st0" d="M274.94,271.54c0,2.67-2.23,4.9-4.9,4.9h-38.77c-2.67,0-4.9-2.23-4.9-4.9v-38.77c0-2.67,2.23-4.9,4.9-4.9
			h38.77c2.67,0,4.9,2.23,4.9,4.9V271.54z"/>
		<g>
			<path class="st0" d="M217.01,155.67c0,2.67-2.23,4.9-4.9,4.9h-38.77c-2.67,0-4.9-2.23-4.9-4.9v-39.22c0-2.67,2.23-4.9,4.9-4.9
				h38.77c2.67,0,4.9,2.23,4.9,4.9V155.67z"/>
			<path class="st0" d="M274.94,155.67c0,2.67-2.23,4.9-4.9,4.9h-38.77c-2.67,0-4.9-2.23-4.9-4.9v-39.22c0-2.67,2.23-4.9,4.9-4.9
				h38.77c2.67,0,4.9,2.23,4.9,4.9V155.67z"/>
			<path class="st0" d="M159.07,213.61c0,2.67-2.23,4.9-4.9,4.9h-38.77c-2.67,0-4.9-2.23-4.9-4.9v-39.22c0-2.67,2.23-4.9,4.9-4.9
				h38.77c2.67,0,4.9,2.23,4.9,4.9V213.61z"/>
			<path class="st0" d="M217.01,213.61c0,2.67-2.23,4.9-4.9,4.9h-38.77c-2.67,0-4.9-2.23-4.9-4.9v-39.22c0-2.67,2.23-4.9,4.9-4.9
				h38.77c2.67,0,4.9,2.23,4.9,4.9V213.61z"/>
			<path class="st0" d="M159.07,271.54c0,2.67-2.23,4.9-4.9,4.9h-38.77c-2.67,0-4.9-2.23-4.9-4.9v-38.77c0-2.67,2.23-4.9,4.9-4.9
				h38.77c2.67,0,4.9,2.23,4.9,4.9V271.54z"/>
			<path class="st0" d="M217.01,271.54c0,2.67-2.23,4.9-4.9,4.9h-38.77c-2.67,0-4.9-2.23-4.9-4.9v-38.77c0-2.67,2.23-4.9,4.9-4.9
				h38.77c2.67,0,4.9,2.23,4.9,4.9V271.54z"/>
			<path class="st0" d="M159.07,329.48c0,2.67-2.23,4.9-4.9,4.9h-38.77c-2.67,0-4.9-2.23-4.9-4.9v-38.77c0-2.67,2.23-4.9,4.9-4.9
				h38.77c2.67,0,4.9,2.23,4.9,4.9V329.48z"/>
			<path class="st0" d="M217.01,329.48c0,2.67-2.23,4.9-4.9,4.9h-38.77c-2.67,0-4.9-2.23-4.9-4.9v-38.77c0-2.67,2.23-4.9,4.9-4.9
				h38.77c2.67,0,4.9,2.23,4.9,4.9V329.48z"/>
			<path class="st1" d="M161.3,136.06c0,14.71-12.03,26.74-26.74,26.74c-14.71,0-26.74-12.03-26.74-26.74
				c0-14.71,12.03-26.74,26.74-26.74C149.71,109.32,161.3,121.36,161.3,136.06"/>
			<g class="st2">
				<path class="st3" d="M308.89,217.16v-48.09h10.21v48.09H308.89z"/>
			</g>
			<g class="st2">
				<path class="st3" d="M373.95,217.16h-12.98l-20.96-36.38h-0.3c0.42,6.43,0.63,11.01,0.63,13.75v22.63h-9.13v-48.09h12.88
					l20.92,36.02h0.23c-0.33-6.25-0.49-10.67-0.49-13.26v-22.76h9.19V217.16z"/>
				<path class="st3" d="M414.51,203.8c0,4.34-1.56,7.76-4.7,10.26c-3.13,2.5-7.48,3.75-13.06,3.75c-5.14,0-9.69-0.96-13.64-2.89
					v-9.47c3.25,1.45,6,2.47,8.25,3.06c2.25,0.59,4.31,0.89,6.18,0.89c2.24,0,3.96-0.43,5.16-1.28c1.2-0.85,1.8-2.13,1.8-3.82
					c0-0.94-0.26-1.78-0.79-2.52c-0.53-0.73-1.3-1.44-2.32-2.12c-1.02-0.68-3.1-1.77-6.24-3.26c-2.94-1.38-5.15-2.71-6.62-3.98
					s-2.65-2.75-3.53-4.44c-0.88-1.69-1.32-3.66-1.32-5.92c0-4.25,1.44-7.6,4.33-10.03c2.89-2.43,6.88-3.65,11.98-3.65
					c2.5,0,4.89,0.3,7.17,0.89c2.27,0.59,4.65,1.43,7.13,2.5l-3.29,7.93c-2.57-1.05-4.7-1.79-6.38-2.2
					c-1.68-0.42-3.33-0.62-4.96-0.62c-1.93,0-3.42,0.45-4.45,1.35c-1.03,0.9-1.55,2.07-1.55,3.52c0,0.9,0.21,1.68,0.63,2.35
					c0.42,0.67,1.08,1.32,1.99,1.94c0.91,0.62,3.07,1.75,6.47,3.37c4.5,2.15,7.59,4.3,9.26,6.46
					C413.67,198.02,414.51,200.67,414.51,203.8z"/>
			</g>
			<g class="st2">
				<path class="st3" d="M442.2,217.16h-10.21v-39.6h-13.08v-8.49h36.38v8.49H442.2V217.16z"/>
				<path class="st3" d="M462.7,217.16v-48.09h10.21v48.09H462.7z"/>
				<path class="st3" d="M503.62,217.16h-10.21v-39.6h-13.08v-8.49h36.38v8.49h-13.08V217.16z"/>
			</g>
			<g class="st2">
				<path class="st3" d="M563.72,169.07v31.12c0,3.55-0.8,6.67-2.39,9.34c-1.59,2.68-3.89,4.73-6.9,6.15
					c-3.01,1.43-6.57,2.14-10.68,2.14c-6.19,0-11-1.58-14.43-4.75c-3.43-3.17-5.14-7.5-5.14-13.01v-30.99h10.18v29.44
					c0,3.71,0.75,6.43,2.24,8.16c1.49,1.73,3.96,2.6,7.41,2.6c3.34,0,5.76-0.87,7.27-2.62c1.5-1.74,2.26-4.48,2.26-8.21v-29.37
					H563.72z"/>
			</g>
			<g class="st2">
				<path class="st3" d="M593.98,217.16h-10.21v-39.6h-13.08v-8.49h36.38v8.49h-13.08V217.16z"/>
			</g>
			<g class="st2">
				<path class="st3" d="M658.41,193.04c0,7.96-1.98,14.08-5.93,18.35c-3.95,4.28-9.62,6.41-17,6.41c-7.38,0-13.05-2.14-17-6.41
					c-3.95-4.28-5.93-10.42-5.93-18.42c0-8,1.98-14.12,5.95-18.34c3.96-4.22,9.65-6.33,17.05-6.33c7.4,0,13.06,2.13,16.99,6.38
					C656.45,178.94,658.41,185.06,658.41,193.04z M623.25,193.04c0,5.37,1.02,9.42,3.06,12.14s5.1,4.08,9.16,4.08
					c8.15,0,12.22-5.41,12.22-16.22c0-10.83-4.05-16.25-12.16-16.25c-4.06,0-7.13,1.36-9.19,4.1
					C624.28,183.62,623.25,187.67,623.25,193.04z"/>
				<path class="st3" d="M695.97,217.16h-10.05v-48.09h27.61v8.35h-17.56v12.4h16.34v8.32h-16.34V217.16z"/>
			</g>
			<g class="st2">
				<path class="st3" d="M750.9,217.16h-27.74v-48.09h27.74v8.35h-17.53v10.56h16.31v8.35h-16.31v12.4h17.53V217.16z"/>
				<path class="st3" d="M800.92,192.65c0,7.92-2.26,13.98-6.77,18.19c-4.51,4.21-11.03,6.32-19.56,6.32h-13.64v-48.09h15.12
					c7.86,0,13.97,2.07,18.32,6.22C798.75,179.43,800.92,185.22,800.92,192.65z M790.31,192.91c0-10.33-4.57-15.49-13.71-15.49
					h-5.44v31.31h4.38C785.39,208.74,790.31,203.46,790.31,192.91z"/>
				<path class="st3" d="M838.65,217.16h-27.74v-48.09h27.74v8.35h-17.53v10.56h16.31v8.35h-16.31v12.4h17.53V217.16z"/>
				<path class="st3" d="M858.91,198.7v18.45H848.7v-48.09h14.04c6.54,0,11.39,1.19,14.53,3.57s4.71,5.99,4.71,10.84
					c0,2.83-0.78,5.35-2.34,7.55c-1.56,2.2-3.77,3.93-6.62,5.18c7.25,10.81,11.97,17.8,14.17,20.95h-11.33l-11.5-18.45H858.91z
					 M858.91,190.41h3.29c3.23,0,5.61-0.54,7.15-1.61c1.54-1.07,2.31-2.76,2.31-5.07c0-2.28-0.79-3.9-2.36-4.87
					c-1.57-0.96-4-1.45-7.3-1.45h-3.1V190.41z"/>
			</g>
			<g class="st2">
				<path class="st3" d="M923.18,217.16l-3.49-11.45h-17.56l-3.49,11.45h-11l17-48.29h12.49l17.07,48.29H923.18z M917.25,197.16
					c-3.23-10.37-5.05-16.24-5.45-17.6c-0.41-1.36-0.7-2.43-0.87-3.22c-0.72,2.81-2.8,9.75-6.23,20.82H917.25z"/>
			</g>
			<g class="st2">
				<path class="st3" d="M940.12,217.16v-48.09h10.21v39.67h19.54v8.42H940.12z"/>
			</g>
			<g class="st2">
				<path class="st3" d="M324.66,243.64c-4,0-7.16,1.33-9.47,3.99s-3.47,6.3-3.47,10.92c0,4.75,1.12,8.43,3.35,11.02
					c2.23,2.59,5.42,3.89,9.55,3.89c2.54,0,5.44-0.46,8.69-1.37v3.7c-2.52,0.94-5.64,1.42-9.34,1.42c-5.36,0-9.5-1.62-12.41-4.87
					c-2.91-3.25-4.37-7.86-4.37-13.84c0-3.75,0.7-7.03,2.1-9.84c1.4-2.82,3.43-4.99,6.07-6.51c2.65-1.52,5.76-2.29,9.35-2.29
					c3.82,0,7.15,0.7,10.01,2.09l-1.79,3.63C330.17,244.29,327.41,243.64,324.66,243.64z"/>
				<path class="st3" d="M352.14,277.22c-4.03,0-7.22-1.23-9.55-3.68c-2.33-2.45-3.5-5.86-3.5-10.21c0-4.39,1.08-7.88,3.25-10.46
					c2.17-2.58,5.07-3.88,8.73-3.88c3.42,0,6.12,1.12,8.12,3.37s2.99,5.21,2.99,8.88v2.61h-18.8c0.08,3.2,0.89,5.62,2.43,7.28
					c1.54,1.66,3.7,2.49,6.49,2.49c2.94,0,5.84-0.61,8.71-1.84v3.68c-1.46,0.63-2.84,1.08-4.15,1.35
					C355.56,277.09,353.98,277.22,352.14,277.22z M351.02,252.44c-2.19,0-3.94,0.71-5.24,2.14c-1.3,1.43-2.07,3.4-2.3,5.92h14.27
					c0-2.6-0.58-4.59-1.74-5.98S353.18,252.44,351.02,252.44z"/>
				<path class="st3" d="M386,276.72l-0.82-3.88h-0.2c-1.36,1.71-2.72,2.86-4.07,3.47c-1.35,0.6-3.04,0.91-5.07,0.91
					c-2.71,0-4.83-0.7-6.36-2.09s-2.3-3.37-2.3-5.94c0-5.5,4.41-8.38,13.22-8.65l4.63-0.15v-1.69c0-2.14-0.46-3.72-1.38-4.73
					c-0.92-1.02-2.39-1.53-4.42-1.53c-2.27,0-4.85,0.7-7.72,2.09l-1.27-3.16c1.34-0.73,2.82-1.3,4.42-1.71
					c1.6-0.41,3.21-0.62,4.82-0.62c3.25,0,5.66,0.72,7.23,2.16s2.35,3.75,2.35,6.93v18.59H386z M376.66,273.82
					c2.57,0,4.59-0.7,6.06-2.11s2.2-3.38,2.2-5.92v-2.46l-4.13,0.17c-3.29,0.12-5.66,0.63-7.11,1.53c-1.45,0.9-2.18,2.31-2.18,4.21
					c0,1.49,0.45,2.63,1.36,3.41C373.77,273.43,375.04,273.82,376.66,273.82z"/>
				<path class="st3" d="M410.03,248.99c1.21,0,2.3,0.1,3.26,0.3l-0.57,3.83c-1.13-0.25-2.12-0.37-2.99-0.37
					c-2.21,0-4.1,0.89-5.66,2.68c-1.57,1.79-2.35,4.02-2.35,6.69v14.61h-4.13v-27.24h3.41l0.47,5.05h0.2
					c1.01-1.77,2.23-3.14,3.66-4.1C406.75,249.47,408.32,248.99,410.03,248.99z"/>
				<path class="st3" d="M435.17,276.72l-0.82-3.88h-0.2c-1.36,1.71-2.72,2.86-4.07,3.47c-1.35,0.6-3.04,0.91-5.07,0.91
					c-2.71,0-4.83-0.7-6.36-2.09s-2.3-3.37-2.3-5.94c0-5.5,4.41-8.38,13.22-8.65l4.63-0.15v-1.69c0-2.14-0.46-3.72-1.38-4.73
					c-0.92-1.02-2.39-1.53-4.42-1.53c-2.27,0-4.85,0.7-7.72,2.09l-1.27-3.16c1.34-0.73,2.82-1.3,4.42-1.71
					c1.6-0.41,3.21-0.62,4.82-0.62c3.25,0,5.66,0.72,7.23,2.16s2.35,3.75,2.35,6.93v18.59H435.17z M425.83,273.82
					c2.57,0,4.59-0.7,6.06-2.11s2.2-3.38,2.2-5.92v-2.46l-4.13,0.17c-3.29,0.12-5.66,0.63-7.11,1.53c-1.45,0.9-2.18,2.31-2.18,4.21
					c0,1.49,0.45,2.63,1.36,3.41C422.94,273.43,424.21,273.82,425.83,273.82z M424.86,245.26c0.8-1.03,1.66-2.27,2.58-3.73
					s1.65-2.73,2.18-3.8h5.03v0.52c-0.73,1.08-1.82,2.4-3.26,3.98c-1.44,1.58-2.7,2.79-3.76,3.65h-2.76V245.26z"/>
			</g>
			<g class="st2">
				<path class="st3" d="M324.65,301.49c-4,0-7.16,1.33-9.47,3.99s-3.47,6.3-3.47,10.92c0,4.76,1.12,8.43,3.35,11.02
					c2.23,2.59,5.42,3.89,9.55,3.89c2.54,0,5.44-0.46,8.69-1.37v3.7c-2.52,0.94-5.64,1.42-9.34,1.42c-5.36,0-9.5-1.62-12.41-4.87
					c-2.91-3.25-4.37-7.86-4.37-13.84c0-3.74,0.7-7.03,2.1-9.84c1.4-2.82,3.43-4.99,6.08-6.51c2.65-1.52,5.76-2.29,9.35-2.29
					c3.82,0,7.15,0.7,10.01,2.09l-1.79,3.63C330.16,302.14,327.41,301.49,324.65,301.49z"/>
				<path class="st3" d="M357.39,334.57l-0.82-3.88h-0.2c-1.36,1.71-2.72,2.86-4.07,3.47c-1.35,0.6-3.04,0.91-5.07,0.91
					c-2.71,0-4.83-0.7-6.36-2.09c-1.54-1.39-2.3-3.37-2.3-5.94c0-5.5,4.41-8.38,13.22-8.65l4.63-0.15v-1.69
					c0-2.14-0.46-3.72-1.38-4.74c-0.92-1.02-2.39-1.53-4.42-1.53c-2.27,0-4.85,0.7-7.72,2.09l-1.27-3.16
					c1.34-0.73,2.82-1.3,4.42-1.72c1.6-0.41,3.21-0.62,4.82-0.62c3.25,0,5.66,0.72,7.23,2.16c1.57,1.44,2.35,3.75,2.35,6.93v18.59
					H357.39z M348.06,331.66c2.57,0,4.59-0.7,6.06-2.11c1.47-1.41,2.2-3.38,2.2-5.92v-2.46l-4.13,0.17
					c-3.29,0.12-5.66,0.63-7.11,1.53c-1.45,0.9-2.18,2.31-2.18,4.21c0,1.49,0.45,2.63,1.36,3.41
					C345.16,331.28,346.43,331.66,348.06,331.66z"/>
				<path class="st3" d="M403.75,334.57v-17.72c0-2.17-0.46-3.8-1.39-4.88c-0.93-1.08-2.37-1.63-4.33-1.63
					c-2.57,0-4.47,0.74-5.7,2.21c-1.23,1.47-1.84,3.75-1.84,6.81v15.21h-4.13v-17.72c0-2.17-0.46-3.8-1.39-4.88
					s-2.38-1.63-4.36-1.63c-2.59,0-4.49,0.77-5.69,2.32c-1.2,1.55-1.81,4.09-1.81,7.62v14.29h-4.13v-27.24h3.36l0.67,3.73h0.2
					c0.78-1.33,1.88-2.36,3.3-3.11c1.42-0.75,3.01-1.12,4.77-1.12c4.27,0,7.05,1.54,8.37,4.62h0.2c0.81-1.42,1.99-2.55,3.54-3.38
					c1.54-0.83,3.3-1.24,5.28-1.24c3.09,0,5.4,0.79,6.93,2.37c1.54,1.58,2.3,4.11,2.3,7.59v17.77H403.75z"/>
				<path class="st3" d="M429.1,335.07c-1.78,0-3.4-0.33-4.87-0.98c-1.47-0.65-2.7-1.66-3.7-3.02h-0.3c0.2,1.59,0.3,3.1,0.3,4.52
					v11.21h-4.13v-39.47h3.36l0.57,3.73h0.2c1.06-1.49,2.3-2.57,3.71-3.23c1.41-0.66,3.03-0.99,4.85-0.99c3.62,0,6.41,1.23,8.38,3.7
					c1.97,2.47,2.95,5.93,2.95,10.39c0,4.47-1,7.95-3,10.43C435.42,333.83,432.65,335.07,429.1,335.07z M428.5,310.34
					c-2.79,0-4.81,0.77-6.05,2.31c-1.25,1.54-1.88,3.99-1.92,7.36v0.92c0,3.83,0.64,6.57,1.92,8.21c1.28,1.65,3.33,2.47,6.15,2.47
					c2.36,0,4.2-0.95,5.54-2.86c1.34-1.91,2-4.53,2-7.88c0-3.4-0.67-6-2-7.82C432.8,311.25,430.92,310.34,428.5,310.34z"/>
				<path class="st3" d="M451.53,307.33V325c0,2.22,0.51,3.88,1.52,4.97c1.01,1.09,2.6,1.64,4.76,1.64c2.85,0,4.94-0.78,6.26-2.34
					c1.32-1.56,1.98-4.1,1.98-7.63v-14.32h4.13v27.24h-3.41l-0.6-3.65h-0.22c-0.85,1.34-2.02,2.37-3.52,3.08
					c-1.5,0.71-3.22,1.07-5.14,1.07c-3.32,0-5.81-0.79-7.46-2.36c-1.65-1.57-2.48-4.09-2.48-7.56v-17.82H451.53z"/>
				<path class="st3" d="M496.54,327.14c0,2.54-0.95,4.49-2.84,5.87c-1.89,1.38-4.55,2.06-7.97,2.06c-3.62,0-6.44-0.57-8.46-1.71
					v-3.83c1.31,0.66,2.72,1.19,4.22,1.57c1.5,0.38,2.95,0.57,4.34,0.57c2.16,0,3.82-0.34,4.98-1.03c1.16-0.69,1.74-1.74,1.74-3.14
					c0-1.06-0.46-1.97-1.38-2.72c-0.92-0.75-2.72-1.64-5.39-2.67c-2.54-0.94-4.34-1.77-5.42-2.47s-1.87-1.5-2.39-2.4
					s-0.78-1.96-0.78-3.21c0-2.22,0.9-3.97,2.71-5.26c1.81-1.28,4.29-1.93,7.44-1.93c2.94,0,5.81,0.6,8.61,1.79l-1.47,3.36
					c-2.74-1.13-5.22-1.69-7.44-1.69c-1.96,0-3.44,0.31-4.43,0.92c-1,0.61-1.49,1.46-1.49,2.54c0,0.73,0.19,1.35,0.56,1.86
					c0.37,0.51,0.98,1,1.81,1.47s2.42,1.14,4.78,2.01c3.24,1.18,5.42,2.36,6.56,3.55C495.97,323.84,496.54,325.34,496.54,327.14z"/>
				<path class="st3" d="M548.73,316.35c0,4.66-0.94,8.53-2.81,11.61c-1.88,3.08-4.52,5.17-7.94,6.26l8.66,9h-6.15l-7.1-8.2
					l-1.37,0.05c-5.36,0-9.5-1.64-12.41-4.91c-2.91-3.27-4.37-7.89-4.37-13.86c0-5.92,1.46-10.5,4.38-13.76
					c2.92-3.26,7.07-4.88,12.45-4.88c5.23,0,9.31,1.66,12.25,4.97C547.26,305.95,548.73,310.52,548.73,316.35z M519.72,316.35
					c0,4.92,1.05,8.65,3.15,11.2c2.1,2.54,5.15,3.82,9.15,3.82c4.03,0,7.08-1.27,9.14-3.8c2.06-2.54,3.09-6.27,3.09-11.21
					c0-4.89-1.03-8.6-3.08-11.12c-2.05-2.53-5.08-3.79-9.1-3.79c-4.03,0-7.1,1.27-9.2,3.82C520.77,307.8,519.72,311.5,519.72,316.35
					z"/>
				<path class="st3" d="M560.1,307.33V325c0,2.22,0.51,3.88,1.52,4.97c1.01,1.09,2.6,1.64,4.76,1.64c2.85,0,4.94-0.78,6.26-2.34
					s1.98-4.1,1.98-7.63v-14.32h4.13v27.24h-3.41l-0.6-3.65h-0.22c-0.85,1.34-2.02,2.37-3.52,3.08c-1.5,0.71-3.22,1.07-5.14,1.07
					c-3.32,0-5.8-0.79-7.46-2.36c-1.65-1.57-2.48-4.09-2.48-7.56v-17.82H560.1z"/>
				<path class="st3" d="M587.17,299.95c0-0.94,0.23-1.64,0.7-2.08c0.46-0.44,1.05-0.66,1.74-0.66c0.66,0,1.24,0.22,1.72,0.67
					s0.72,1.13,0.72,2.06c0,0.93-0.24,1.62-0.72,2.08c-0.48,0.46-1.05,0.68-1.72,0.68c-0.7,0-1.28-0.23-1.74-0.68
					C587.4,301.57,587.17,300.88,587.17,299.95z M591.65,334.57h-4.13v-27.24h4.13V334.57z"/>
				<path class="st3" d="M606.99,320.63l-9.49-13.3h4.71l7.2,10.44l7.17-10.44h4.66l-9.49,13.3l9.98,13.94h-4.68l-7.64-11.04
					l-7.72,11.04H597L606.99,320.63z"/>
				<path class="st3" d="M643.91,334.57l-0.82-3.88h-0.2c-1.36,1.71-2.72,2.86-4.07,3.47c-1.35,0.6-3.04,0.91-5.07,0.91
					c-2.71,0-4.83-0.7-6.36-2.09c-1.54-1.39-2.3-3.37-2.3-5.94c0-5.5,4.41-8.38,13.22-8.65l4.63-0.15v-1.69
					c0-2.14-0.46-3.72-1.38-4.74c-0.92-1.02-2.39-1.53-4.42-1.53c-2.27,0-4.85,0.7-7.72,2.09l-1.27-3.16
					c1.34-0.73,2.82-1.3,4.42-1.72c1.6-0.41,3.21-0.62,4.82-0.62c3.25,0,5.66,0.72,7.23,2.16c1.57,1.44,2.35,3.75,2.35,6.93v18.59
					H643.91z M634.57,331.66c2.57,0,4.59-0.7,6.06-2.11s2.2-3.38,2.2-5.92v-2.46l-4.13,0.17c-3.29,0.12-5.66,0.63-7.11,1.53
					c-1.45,0.9-2.18,2.31-2.18,4.21c0,1.49,0.45,2.63,1.36,3.41C631.68,331.28,632.94,331.66,634.57,331.66z"/>
				<path class="st3" d="M674.06,330.92h-0.22c-1.91,2.77-4.76,4.15-8.57,4.15c-3.57,0-6.34-1.22-8.33-3.65
					c-1.98-2.44-2.97-5.9-2.97-10.39s1-7.98,2.99-10.46c1.99-2.49,4.76-3.73,8.32-3.73c3.7,0,6.54,1.34,8.52,4.03h0.32l-0.17-1.96
					l-0.1-1.91V295.9h4.13v38.67h-3.36L674.06,330.92z M665.79,331.61c2.82,0,4.87-0.77,6.14-2.3c1.27-1.53,1.91-4.01,1.91-7.42
					v-0.87c0-3.86-0.64-6.62-1.93-8.26c-1.29-1.65-3.34-2.47-6.16-2.47c-2.42,0-4.28,0.94-5.56,2.82c-1.29,1.88-1.93,4.54-1.93,7.97
					c0,3.48,0.64,6.11,1.92,7.88C661.44,330.73,663.32,331.61,665.79,331.61z"/>
				<path class="st3" d="M703.51,334.57l-0.82-3.88h-0.2c-1.36,1.71-2.72,2.86-4.07,3.47c-1.35,0.6-3.04,0.91-5.07,0.91
					c-2.71,0-4.83-0.7-6.36-2.09c-1.54-1.39-2.3-3.37-2.3-5.94c0-5.5,4.41-8.38,13.22-8.65l4.63-0.15v-1.69
					c0-2.14-0.46-3.72-1.38-4.74c-0.92-1.02-2.39-1.53-4.42-1.53c-2.27,0-4.85,0.7-7.72,2.09l-1.27-3.16
					c1.34-0.73,2.82-1.3,4.42-1.72c1.6-0.41,3.21-0.62,4.82-0.62c3.25,0,5.66,0.72,7.23,2.16c1.57,1.44,2.35,3.75,2.35,6.93v18.59
					H703.51z M694.18,331.66c2.57,0,4.59-0.7,6.06-2.11s2.2-3.38,2.2-5.92v-2.46l-4.13,0.17c-3.29,0.12-5.66,0.63-7.11,1.53
					c-1.45,0.9-2.18,2.31-2.18,4.21c0,1.49,0.45,2.63,1.36,3.41C691.28,331.28,692.55,331.66,694.18,331.66z M693.21,303.11
					c0.8-1.03,1.66-2.27,2.58-3.73c0.92-1.46,1.65-2.73,2.18-3.8h5.03v0.52c-0.73,1.08-1.82,2.4-3.26,3.98
					c-1.44,1.58-2.7,2.79-3.76,3.65h-2.76V303.11z"/>
			</g>
		</g>
	</g>
</g>
</svg>
